abstract-vignette
…
data("adae")
dataset_rash = preprocessing_rash(adsl, biomark, adae, 800)
random_forest_rash(dataset_rash)
#> $pa_train
#> # A tibble: 800 × 2
#>         pred actual
#>    <dbl[1d]>  <int>
#>  1         0      0
#>  2         0      0
#>  3         0      0
#>  4         0      0
#>  5         0      0
#>  6         1      1
#>  7         0      0
#>  8         1      1
#>  9         0      0
#> 10         1      1
#> # ℹ 790 more rows
#> 
#> $pa_test
#> # A tibble: 131 × 2
#>         pred actual
#>    <dbl[1d]>  <int>
#>  1         0      0
#>  2         0      0
#>  3         0      0
#>  4         0      0
#>  5         1      1
#>  6         0      0
#>  7         1      1
#>  8         1      1
#>  9         0      0
#> 10         0      0
#> # ℹ 121 more rows
…
