…
<img src="man/figures/README-example-2.png" width="100%" />

``` r
data("adae")
dataset = preprocessing_rash(adsl, biomark, adae, 800)
random_forest_rash(dataset)
#> $pa_train
#> # A tibble: 800 × 2
#>         pred actual
#>    <dbl[1d]>  <int>
#>  1    0.0570      0
#>  2    0.356       0
#>  3    0.0240      0
#>  4    0.0138      0
#>  5    0.0532      0
#>  6    0.564       1
#>  7    0.0746      0
#>  8    0.727       1
#>  9    0.0647      0
#> 10    0.653       1
#> # ℹ 790 more rows
#> 
#> $pa_test
#> # A tibble: 131 × 2
#>         pred actual
#>    <dbl[1d]>  <int>
#>  1    0.0920      0
#>  2    0.336       0
#>  3    0.163       0
#>  4    0.0485      0
#>  5    0.643       1
#>  6    0.0181      0
#>  7    0.500       1
#>  8    0.654       1
#>  9    0.0855      0
#> 10    0.0235      0
#> # ℹ 121 more rows
…
