…
      $y_train
      # A tibble: 800 x 1
          AEPT
         <int>
       1     0
       2     0
       3     0
       4     0
       5     0
       6     1
       7     0
       8     1
       9     0
      10     1
      # i 790 more rows
      
      $y_test
      # A tibble: 131 x 1
          AEPT
         <int>
       1     0
       2     0
       3     0
       4     0
       5     1
       6     0
       7     1
       8     1
       9     0
      10     0
      # i 121 more rows
